%!PS-Adobe-3.0 
%%Creator: Adobe Illustrator(TM) 3.2
%%AI8_CreatorVersion: 27.4.1
%%For: (Jonathan Neuhauser) ()
%%Title: (525x801_origin_at_100_100_AI3.ai)
%%CreationDate: 5/10/2023 8:53 PM
%%Canvassize: 16383
%%BoundingBox: -100 0 0 100
%%DocumentProcessColors: Cyan Magenta Yellow Black
%%DocumentNeededResources: procset Adobe_packedarray 2.0 0
%%+ procset Adobe_cmykcolor 1.1 0
%%+ procset Adobe_cshow 1.1 0
%%+ procset Adobe_customcolor 1.0 0
%%+ procset Adobe_pattern_AI3 1.0 0
%%+ procset Adobe_Illustrator_AI3 1.0 1
%AI3_ColorUsage: Color
%AI3_TemplateBox: 163 -301 163 -301
%AI3_TileBox: -125.7778 -712.1151 450.8222 111.0849
%AI3_DocumentPreview: None
%%PageOrigin:-238 -600
%AI7_GridSettings: 72 8 72 8 1 0 0.8 0.8 0.8 0.9 0.9 0.9
%AI9_Flatten: 1
%AI12_CMSettings: 00.MS
%%EndComments
%%BeginProlog
%%IncludeResource: procset Adobe_packedarray 2.0 0
Adobe_packedarray /initialize get exec
%%IncludeResource: procset Adobe_cmykcolor 1.1 0
%%IncludeResource: procset Adobe_cshow 1.1 0
%%IncludeResource: procset Adobe_customcolor 1.0 0
%%IncludeResource: procset Adobe_pattern_AI3 1.0 0
%%IncludeResource: procset Adobe_Illustrator_AI3 1.0 1
%%EndProlog
%%BeginSetup
Adobe_cmykcolor /initialize get exec
Adobe_cshow /initialize get exec
Adobe_customcolor /initialize get exec
Adobe_pattern_AI3 /initialize get exec
Adobe_Illustrator_AI3 /initialize get exec
%%EndSetup
0 A
0 O
0.749721 0.679194 0.670497 0.901457 k
0 J 0 j 1 w 10 M []0 d
-100 100 m
0 100 l
0 0 l
-100 100 l
f
%%PageTrailer
gsave annotatepage grestore showpage
%%Trailer
Adobe_Illustrator_AI3 /terminate get exec
Adobe_pattern_AI3 /terminate get exec
Adobe_customcolor /terminate get exec
Adobe_cshow /terminate get exec
Adobe_cmykcolor /terminate get exec
Adobe_packedarray /terminate get exec
%%EOF
